{
  "homepage": "https://modrinth.com/mod/minecraftcontentexpansion",
  "promos": {
    "1.12.2-latest": "0.2.2",
    "1.12.2-recommended": "0.2.2",
    "1.13.2-latest": "0.3",
    "1.13.2-recommended": "0.3",
    "1.14.4-latest": "0.4.2",
    "1.14.4-recommended": "0.4.2",
    "1.15.2-latest": "0.5.1",
    "1.15.2-recommended": "0.5.1",
    "1.16.3-latest": "0.6",
    "1.16.3-recommended": "0.6",
    "1.16.4-latest": "0.6.1",
    "1.16.4-recommended": "0.6.1",
    "1.18.2-latest": "0.7.1",
    "1.18.2-recommended": "0.7.1",
    "1.20.1-latest": "1.0.0",
    "1.20.1-recommended": "1.0.0",
    "1.20.4-latest": "1.1.0",
    "1.20.4-recommended": "1.1.0"
  }
}
