{
  "parent": "block/block",
  "textures": {
    "bottom": "minecraft:block/dirt",
    "side": "minecraft:block/dirt_path_side",
    "top": "minecraft:block/dirt_path_top",
    "particle": "#bottom"
  },
  "elements": [
    {
      "from": [ 0, 0, 0 ],
      "to": [ 16, 7, 16 ],
      "faces": {
        "down":  { "uv": [ 0, 0, 16, 16 ], "texture": "#bottom", "cullface": "down" },
        "up":    { "uv": [ 0, 0, 16, 16 ], "texture": "#top" },
        "north": { "uv": [ 0, 1, 16,  8 ], "texture": "#side", "cullface": "north" },
        "south": { "uv": [ 0, 1, 16,  8 ], "texture": "#side", "cullface": "south" },
        "west":  { "uv": [ 0, 1, 16,  8 ], "texture": "#side", "cullface": "west" },
        "east":  { "uv": [ 0, 1, 16,  8 ], "texture": "#side", "cullface": "east" }
      }
    }
  ]
}
