{
  "parent": "minecraft:block/orientable",
  "textures": {
    "front": "minecraftcontentexpansion:block/electric_smelter_front_lit",
    "side": "minecraftcontentexpansion:block/electric_smelter_side",
    "top": "minecraftcontentexpansion:block/machine_frame"
  }
}