{
  "parent": "block/block",
  "textures": {
    "all": "minecraft:block/jungle_planks",
    "particle": "minecraft:block/jungle_planks"
  },
  "elements": [
    {
      "from": [
        0,
        12,
        6
      ],
      "to": [
        16,
        16,
        10
      ],
      "faces": {
        "north": {
          "texture": "#all",
          "uv": [
            0,
            0,
            16,
            4
          ]
        },
        "east": {
          "texture": "#all",
          "uv": [
            0,
            0,
            4,
            4
          ]
        },
        "south": {
          "texture": "#all",
          "uv": [
            0,
            0,
            16,
            4
          ]
        },
        "west": {
          "texture": "#all",
          "uv": [
            12,
            0,
            16,
            4
          ]
        },
        "up": {
          "texture": "#all",
          "uv": [
            0,
            12,
            16,
            16
          ]
        },
        "down": {
          "texture": "#all",
          "uv": [
            0,
            0,
            16,
            4
          ]
        }
      }
    }
  ]
}