{
  "credit": "Made with Blockbench",
  "parent": "minecraft:block/orientable",
  "textures": {
    "0": "minecraftcontentexpansion:block/kiln_front",
    "2": "minecraftcontentexpansion:block/kiln_side",
    "3": "minecraftcontentexpansion:block/kiln_top",
    "particle": "minecraftcontentexpansion:block/kiln_side"
  },
  "elements": [
    {
      "from": [
        0,
        0,
        0
      ],
      "to": [
        16,
        5,
        16
      ],
      "rotation": {
        "angle": 0,
        "axis": "y",
        "origin": [
          9,
          2,
          9
        ]
      },
      "faces": {
        "north": {
          "uv": [
            0,
            10,
            16,
            16
          ],
          "texture": "#0"
        },
        "east": {
          "uv": [
            0,
            10,
            16,
            15
          ],
          "texture": "#2"
        },
        "south": {
          "uv": [
            0,
            10,
            16,
            15
          ],
          "texture": "#2"
        },
        "west": {
          "uv": [
            0,
            10,
            16,
            15
          ],
          "texture": "#2"
        },
        "up": {
          "uv": [
            0,
            0,
            16,
            16
          ],
          "texture": "#3"
        },
        "down": {
          "uv": [
            0,
            0,
            16,
            16
          ],
          "texture": "#3"
        }
      }
    },
    {
      "from": [
        1,
        5,
        1
      ],
      "to": [
        15,
        9,
        15
      ],
      "rotation": {
        "angle": 0,
        "axis": "y",
        "origin": [
          8,
          7,
          8
        ]
      },
      "faces": {
        "north": {
          "uv": [
            0,
            11,
            16,
            16
          ],
          "rotation": 180,
          "texture": "#2"
        },
        "east": {
          "uv": [
            0,
            11,
            16,
            16
          ],
          "rotation": 180,
          "texture": "#2"
        },
        "south": {
          "uv": [
            0,
            11,
            16,
            16
          ],
          "rotation": 180,
          "texture": "#2"
        },
        "west": {
          "uv": [
            0,
            11,
            16,
            16
          ],
          "rotation": 180,
          "texture": "#2"
        },
        "up": {
          "uv": [
            0,
            0,
            16,
            16
          ],
          "texture": "#3"
        },
        "down": {
          "uv": [
            0,
            0,
            16,
            16
          ],
          "texture": "#3"
        }
      }
    },
    {
      "from": [
        2,
        9,
        2
      ],
      "to": [
        14,
        13,
        14
      ],
      "rotation": {
        "angle": 0,
        "axis": "y",
        "origin": [
          8,
          11,
          8
        ]
      },
      "faces": {
        "north": {
          "uv": [
            0,
            0,
            16,
            8
          ],
          "texture": "#0"
        },
        "east": {
          "uv": [
            0,
            0,
            16,
            8
          ],
          "texture": "#2"
        },
        "south": {
          "uv": [
            0,
            0,
            16,
            8
          ],
          "texture": "#2"
        },
        "west": {
          "uv": [
            0,
            0,
            16,
            8
          ],
          "texture": "#2"
        },
        "up": {
          "uv": [
            0,
            0,
            16,
            16
          ],
          "texture": "#3"
        },
        "down": {
          "uv": [
            0,
            0,
            16,
            16
          ],
          "texture": "#3"
        }
      }
    },
    {
      "from": [
        3,
        13,
        3
      ],
      "to": [
        13,
        16,
        13
      ],
      "rotation": {
        "angle": 0,
        "axis": "y",
        "origin": [
          9,
          15,
          9
        ]
      },
      "faces": {
        "north": {
          "uv": [
            0,
            0,
            16,
            6
          ],
          "texture": "#2"
        },
        "east": {
          "uv": [
            0,
            0,
            16,
            6
          ],
          "texture": "#2"
        },
        "south": {
          "uv": [
            0,
            0,
            16,
            6
          ],
          "texture": "#2"
        },
        "west": {
          "uv": [
            0,
            0,
            16,
            6
          ],
          "texture": "#2"
        },
        "up": {
          "uv": [
            0,
            0,
            16,
            16
          ],
          "texture": "#3"
        },
        "down": {
          "uv": [
            0,
            0,
            16,
            16
          ],
          "texture": "#3"
        }
      }
    }
  ],
  "display": {}
}