{
	"credit": "Made with Blockbench",
	"parent": "minecraft:block/cube_all",
	"textures": {
		"particle": "minecraftcontentexpansion:block/machine_frame",
		"bottom": "minecraftcontentexpansion:block/machine_frame",
		"top": "minecraftcontentexpansion:block/liquid_tank"
	},
	"elements": [
		{
			"name": "top",
			"from": [1, 15, 1],
			"to": [15, 16, 15],
			"faces": {
				"north": {"uv": [1, 0, 15, 1], "texture": "#top"},
				"east": {"uv": [1, 0, 15, 1], "texture": "#top"},
				"south": {"uv": [1, 0, 15, 1], "texture": "#top"},
				"west": {"uv": [1, 0, 15, 1], "texture": "#top"},
				"up": {"uv": [1, 1, 15, 15], "texture": "#top"},
				"down": {"uv": [1, 1, 15, 15], "texture": "#top"}
			}
		},
		{
			"name": "bottom",
			"from": [1, 0, 1],
			"to": [15, 1, 15],
			"faces": {
				"north": {"uv": [1, 0, 15, 1], "texture": "#bottom"},
				"east": {"uv": [1, 0, 15, 1], "texture": "#bottom"},
				"south": {"uv": [1, 0, 15, 1], "texture": "#bottom"},
				"west": {"uv": [1, 0, 15, 1], "texture": "#bottom"},
				"up": {"uv": [1, 1, 15, 15], "texture": "#bottom"},
				"down": {"uv": [1, 1, 15, 15], "texture": "#bottom"}
			}
		},
		{
			"name": "N",
			"from": [0, 0, 0],
			"to": [16, 16, 1],
			"faces": {
				"north": {"uv": [0, 0, 16, 16], "texture": "#top"},
				"east": {"uv": [0, 0, 1, 16], "texture": "#top"},
				"south": {"uv": [0, 0, 16, 16], "texture": "#top"},
				"west": {"uv": [0, 0, 1, 16], "texture": "#top"},
				"up": {"uv": [0, 0, 16, 1], "texture": "#top"},
				"down": {"uv": [0, 0, 16, 1], "texture": "#top"}
			}
		},
		{
			"name": "E",
			"from": [15, 0, 1],
			"to": [16, 16, 15],
			"faces": {
				"north": {"uv": [0, 0, 1, 16], "texture": "#top"},
				"east": {"uv": [1, 0, 15, 16], "texture": "#top"},
				"south": {"uv": [0, 0, 1, 16], "texture": "#top"},
				"west": {"uv": [1, 0, 15, 16], "texture": "#top"},
				"up": {"uv": [1, 0, 14, 1], "rotation": 270, "texture": "#top"},
				"down": {"uv": [1, 0, 14, 1], "rotation": 90, "texture": "#top"}
			}
		},
		{
			"name": "S",
			"from": [0, 0, 15],
			"to": [16, 16, 16],
			"faces": {
				"north": {"uv": [0, 0, 16, 16], "texture": "#top"},
				"east": {"uv": [0, 0, 1, 16], "texture": "#top"},
				"south": {"uv": [0, 0, 16, 16], "texture": "#top"},
				"west": {"uv": [0, 0, 1, 16], "texture": "#top"},
				"up": {"uv": [0, 0, 16, 1], "texture": "#top"},
				"down": {"uv": [0, 0, 16, 1], "texture": "#top"}
			}
		},
		{
			"name": "W",
			"from": [0, 0, 1],
			"to": [1, 16, 15],
			"faces": {
				"north": {"uv": [0, 0, 1, 16], "texture": "#top"},
				"east": {"uv": [1, 0, 15, 16], "texture": "#top"},
				"south": {"uv": [0, 0, 1, 16], "texture": "#top"},
				"west": {"uv": [1, 0, 15, 16], "texture": "#top"},
				"up": {"uv": [1, 0, 14, 1], "rotation": 270, "texture": "#top"},
				"down": {"uv": [1, 0, 14, 1], "rotation": 90, "texture": "#top"}
			}
		}
	],
	"groups": [
		0,
		1,
		{
			"name": "sides",
			"origin": [0, 0, 0],
			"color": 0,
			"children": [2, 3, 4, 5]
		}
	]
}