{
  "parent": "minecraft:block/orientable",
  "textures": {
    "front": "minecraftcontentexpansion:block/smelter_front",
    "side": "minecraftcontentexpansion:block/smelter_side",
    "top": "minecraftcontentexpansion:block/smelter_top"
  }
}