{
  "multipart": [
    {
      "apply": {
        "model": "minecraftcontentexpansion:block/copper_cable_dot"
      },
      "when": {
        "OR": [
          {
            "east": "none",
            "north": "none",
            "south": "none",
            "west": "none"
          },
          {
            "east": "side|up",
            "north": "side|up"
          },
          {
            "east": "side|up",
            "south": "side|up"
          },
          {
            "south": "side|up",
            "west": "side|up"
          },
          {
            "north": "side|up",
            "west": "side|up"
          }
        ]
      }
    },
    {
      "apply": {
        "model": "minecraftcontentexpansion:block/copper_cable_side"
      },
      "when": {
        "north": "side|up"
      }
    },
    {
      "apply": {
        "model": "minecraftcontentexpansion:block/copper_cable_side",
        "y": 180
      },
      "when": {
        "south": "side|up"
      }
    },
    {
      "apply": {
        "model": "minecraftcontentexpansion:block/copper_cable_side",
        "y": 90
      },
      "when": {
        "east": "side|up"
      }
    },
    {
      "apply": {
        "model": "minecraftcontentexpansion:block/copper_cable_side",
        "y": 270
      },
      "when": {
        "west": "side|up"
      }
    },
    {
      "apply": {
        "model": "minecraftcontentexpansion:block/copper_cable_up"
      },
      "when": {
        "north": "up"
      }
    },
    {
      "apply": {
        "model": "minecraftcontentexpansion:block/copper_cable_up",
        "y": 90
      },
      "when": {
        "east": "up"
      }
    },
    {
      "apply": {
        "model": "minecraftcontentexpansion:block/copper_cable_up",
        "y": 180
      },
      "when": {
        "south": "up"
      }
    },
    {
      "apply": {
        "model": "minecraftcontentexpansion:block/copper_cable_up",
        "y": 270
      },
      "when": {
        "west": "up"
      }
    }
  ]
}