{
  "forge_marker": 1,
  "defaults": {
    "model": "minecraftcontentexpansion:oak_drying_rack"
  },
  "variants": {
    "facing=north": {
      "model": "minecraftcontentexpansion:block/oak_drying_rack_side",
      "y": 180
    },
    "facing=south": {
      "model": "minecraftcontentexpansion:block/oak_drying_rack_side"
    },
    "facing=east": {
      "model": "minecraftcontentexpansion:block/oak_drying_rack_side",
      "y": 270
    },
    "facing=west": {
      "model": "minecraftcontentexpansion:block/oak_drying_rack_side",
      "y": 90
    }
  }
}